2020-5-21, 15:45:19.803 UTC
[15:45:25.872 UTC] Verbose logs are written to:
[15:45:25.872 UTC] /Users/roblou/code/vscode-chrome-debug/logs/darwin-BreakOnLoad Regex Common Tests TypeScript Project with SourceMaps Hits a breakpoint in the first line in a file on load-TEST.log
