2020-5-21, 15:44:50.474 UTC
[15:44:50.474 UTC] OS: darwin x64
[15:44:50.475 UTC] Adapter node: v12.16.1 x64
[15:44:50.475 UTC] vscode-chrome-debug-core: 6.8.9
[15:44:50.475 UTC] debugger-for-chrome: 4.12.8
[15:44:50.475 UTC] From client: initialize({"adapterID":"chrome","linesStartAt1":true,"columnsStartAt1":true,"pathFormat":"path"})
[15:44:50.475 UTC] To client: {"seq":0,"type":"response","request_seq":1,"command":"initialize","success":true,"body":{"exceptionBreakpointFilters":[{"label":"All Exceptions","filter":"all","default":false},{"label":"Uncaught Exceptions","filter":"uncaught","default":false}],"supportsConfigurationDoneRequest":true,"supportsSetVariable":true,"supportsConditionalBreakpoints":true,"supportsCompletionsRequest":true,"supportsHitConditionalBreakpoints":true,"supportsRestartFrame":true,"supportsExceptionInfoRequest":true,"supportsDelayedStackTraceLoading":true,"supportsValueFormattingOptions":true,"supportsEvaluateForHovers":true,"supportsLoadedSourcesRequest":true,"supportsBreakpointLocationsRequest":true,"supportsRestartRequest":true,"supportsSetExpression":true,"supportsLogPoints":true}}
[15:44:50.475 UTC] To client: {"seq":0,"type":"event","event":"output","body":{"category":"telemetry","output":"ClientRequest/initialize","data":{"Versions.DebugAdapterCore":"6.8.9","Versions.DebugAdapter":"4.12.8","successful":"true","timeTakenInMilliseconds":"1.714275","requestType":"request"}}}
[15:44:50.475 UTC] From client: launch({"url":"http://localhost:7890","timeout":5000,"webRoot":"/Users/roblou/code/vscode-chrome-debug/testdata/intervalDebugger","port":0,"trace":"verbose","logTimestamps":true,"disableNetworkCache":true,"logFilePath":"/Users/roblou/code/vscode-chrome-debug/logs/darwin-Chrome Debug Adapter etc launch Should launch successfully on port 0-DA.log","runtimeExecutable":"/Users/roblou/code/vscode-chrome-debug/node_modules/puppeteer/.local-chromium/mac-686378/chrome-mac/Chromium.app/Contents/MacOS/Chromium","userDataDir":"/var/folders/tx/p0ycbfpj37786p760wwdg6y80000gn/T/chrome2-3540cPNgXYxVLMZG"})
[15:44:50.475 UTC] To client: {"seq":0,"type":"event","event":"output","body":{"category":"telemetry","output":"debugStarted","data":{"Versions.DebugAdapterCore":"6.8.9","Versions.DebugAdapter":"4.12.8","request":"launch","args":["url","timeout","webRoot","port","trace","logTimestamps","disableNetworkCache","logFilePath","runtimeExecutable","userDataDir","breakOnLoadStrategy","pathMapping","sourceMaps","sourceMapPathOverrides","skipFileRegExps","targetFilter","smartStep","showAsyncStacks"]}}}
[15:44:50.475 UTC] spawn('/Users/roblou/code/vscode-chrome-debug/node_modules/puppeteer/.local-chromium/mac-686378/chrome-mac/Chromium.app/Contents/MacOS/Chromium', ["--remote-debugging-port=0","--no-first-run","--no-default-browser-check","--user-data-dir=/var/folders/tx/p0ycbfpj37786p760wwdg6y80000gn/T/chrome2-3540cPNgXYxVLMZG","about:blank"])
[15:44:50.475 UTC] Looking for DevToolsActivePort file...
[15:44:50.676 UTC] Looking for DevToolsActivePort file...
[15:44:50.879 UTC] Looking for DevToolsActivePort file...
[15:44:50.887 UTC] Got the port, checking if its ready...
[15:44:50.891 UTC] Getting browser and debug protocol version via http://127.0.0.1:50120/json/version
[15:44:50.896 UTC] Discovering targets via http://127.0.0.1:50120/json/list
[15:44:55.995 UTC] Got browser version: Chrome/78.0.3882.0
[15:44:55.995 UTC] Got debug protocol version: 1.3
[15:44:55.995 UTC] To client: {"seq":0,"type":"event","event":"output","body":{"category":"telemetry","output":"targetDebugProtocolVersion","data":{"Versions.DebugAdapterCore":"6.8.9","Versions.DebugAdapter":"4.12.8"}}}
[15:44:55.996 UTC] To client: {"seq":0,"type":"event","event":"output","body":{"category":"telemetry","output":"targetCount","data":{"Versions.DebugAdapterCore":"6.8.9","Versions.DebugAdapter":"4.12.8","numTargets":1}}}
[15:44:55.997 UTC] Attaching to target: {"description":"","devtoolsFrontendUrl":"/devtools/inspector.html?ws=localhost/devtools/page/DD04FBFA0867FF104096D3F3D3F15374","id":"DD04FBFA0867FF104096D3F3D3F15374","title":"","type":"page","url":"about:blank","webSocketDebuggerUrl":"ws://127.0.0.1:50120/devtools/page/DD04FBFA0867FF104096D3F3D3F15374","version":{}}
[15:44:55.997 UTC] WebSocket Url: ws://127.0.0.1:50120/devtools/page/DD04FBFA0867FF104096D3F3D3F15374
[15:44:56.022 UTC] → To target: "{\"id\":1,\"method\":\"Console.enable\"}"
[15:44:56.022 UTC] → To target: "{\"id\":2,\"method\":\"Debugger.enable\"}"
[15:44:56.022 UTC] → To target: "{\"id\":3,\"method\":\"Runtime.enable\"}"
[15:44:56.022 UTC] → To target: "{\"id\":4,\"method\":\"Log.enable\"}"
[15:44:56.022 UTC] → To target: "{\"id\":5,\"method\":\"Runtime.runIfWaitingForDebugger\"}"
[15:44:56.023 UTC] → To target: "{\"id\":6,\"method\":\"Runtime.run\"}"
[15:44:56.023 UTC] → To target: "{\"id\":7,\"method\":\"Page.enable\"}"
[15:44:56.023 UTC] → To target: "{\"id\":8,\"method\":\"Network.enable\",\"params\":{}}"
[15:44:56.045 UTC] ← From target: {"id":1,"result":{}}
[15:44:56.046 UTC] ← From target: {"id":2,"result":{"debuggerId":"(4CCB4410653AC1AEA4B8C02CA7755ED5)"}}
[15:44:56.046 UTC] ← From target: {"method":"Runtime.executionContextCreated","params":{"context":{"id":1,"origin":"://","name":"","auxData":{"isDefault":true,"type":"default","frameId":"DD04FBFA0867FF104096D3F3D3F15374"}}}}
[15:44:56.047 UTC] ← From target: {"id":3,"result":{}}
[15:44:56.047 UTC] ← From target: {"id":4,"result":{}}
[15:44:56.048 UTC] ← From target: {"id":5,"result":{}}
[15:44:56.049 UTC] ← From target: {"error":{"code":-32601,"message":"'Runtime.run' wasn't found"},"id":6}
[15:44:56.049 UTC] ← From target: {"id":7,"result":{}}
[15:44:56.050 UTC] ← From target: {"id":8,"result":{}}
[15:44:56.050 UTC] → To target: "{\"id\":9,\"method\":\"Debugger.setBlackboxPatterns\",\"params\":{\"patterns\":[\"^chrome-extension:.*\"]}}"
[15:44:56.050 UTC] → To target: "{\"id\":10,\"method\":\"Schema.getDomains\"}"
[15:44:56.051 UTC] ← From target: {"method":"Page.frameResized","params":{}}
[15:44:56.051 UTC] ← From target: {"id":10,"result":{"domains":[{"name":"Inspector","version":"1.2"},{"name":"Memory","version":"1.2"},{"name":"Page","version":"1.2"},{"name":"Emulation","version":"1.2"},{"name":"Security","version":"1.2"},{"name":"Network","version":"1.2"},{"name":"Database","version":"1.2"},{"name":"IndexedDB","version":"1.2"},{"name":"CacheStorage","version":"1.2"},{"name":"DOMStorage","version":"1.2"},{"name":"CSS","version":"1.2"},{"name":"ApplicationCache","version":"1.2"},{"name":"DOM","version":"1.2"},{"name":"IO","version":"1.2"},{"name":"DOMDebugger","version":"1.2"},{"name":"DOMSnapshot","version":"1.2"},{"name":"ServiceWorker","version":"1.2"},{"name":"Input","version":"1.2"},{"name":"LayerTree","version":"1.2"},{"name":"DeviceOrientation","version":"1.2"},{"name":"Tracing","version":"1.2"},{"name":"Animation","version":"1.2"},{"name":"Accessibility","version":"1.2"},{"name":"Storage","version":"1.2"},{"name":"Log","version":"1.2"},{"name":"Runtime","version":"1.2"},{"name":"Debugger","version":"1.2"},{"name":"Profiler","version":"1.2"},{"name":"HeapProfiler","version":"1.2"},{"name":"Schema","version":"1.2"},{"name":"Target","version":"1.2"},{"name":"Overlay","version":"1.2"},{"name":"Performance","version":"1.2"},{"name":"Audits","version":"1.2"},{"name":"HeadlessExperimental","version":"1.2"}]}}
[15:44:56.051 UTC] → To target: "{\"id\":11,\"method\":\"Debugger.setAsyncCallStackDepth\",\"params\":{\"maxDepth\":4}}"
[15:44:56.052 UTC] ← From target: {"id":9,"result":{}}
[15:44:56.052 UTC] ← From target: {"id":11,"result":{}}
[15:44:56.053 UTC] → To target: "{\"id\":12,\"method\":\"Runtime.evaluate\",\"params\":{\"expression\":\"navigator.userAgent\",\"silent\":true}}"
[15:44:56.053 UTC] → To target: "{\"id\":13,\"method\":\"Browser.getVersion\"}"
[15:44:56.053 UTC] To client: {"seq":0,"type":"response","request_seq":2,"command":"launch","success":true}
[15:44:56.053 UTC] To client: {"seq":0,"type":"event","event":"output","body":{"category":"telemetry","output":"ClientRequest/launch","data":{"Versions.DebugAdapterCore":"6.8.9","Versions.DebugAdapter":"4.12.8","successful":"true","timeTakenInMilliseconds":"5594.209027","requestType":"request"}}}
[15:44:56.054 UTC] ← From target: {"id":13,"result":{"protocolVersion":"1.3","product":"Chrome/78.0.3882.0","revision":"@19d4547535ab5aba70b4730443f84e8153052174","userAgent":"Mozilla/5.0 (Macintosh; Intel Mac OS X 10_15_4) AppleWebKit/537.36 (KHTML, like Gecko) Chrome/78.0.3882.0 Safari/537.36","jsVersion":"7.8.89"}}
[15:44:56.054 UTC] To client: {"seq":0,"type":"event","event":"output","body":{"category":"telemetry","output":"target-version","data":{"Versions.DebugAdapterCore":"6.8.9","Versions.DebugAdapter":"4.12.8","Versions.Target.CRDPVersion":"1.3","Versions.Target.Revision":"@19d4547535ab5aba70b4730443f84e8153052174","Versions.Target.UserAgent":"Mozilla/5.0 (Macintosh; Intel Mac OS X 10_15_4) AppleWebKit/537.36 (KHTML, like Gecko) Chrome/78.0.3882.0 Safari/537.36","Versions.Target.V8":"7.8.89","Versions.Target.Project":"Chrome","Versions.Target.Version":"78.0.3882.0"}}}
[15:44:56.055 UTC] ← From target: {"method":"Debugger.scriptParsed","params":{"scriptId":"13","url":"","startLine":0,"startColumn":0,"endLine":0,"endColumn":19,"executionContextId":1,"hash":"3a6f8cb8708878331cc2be2ec90de0ab25738855","executionContextAuxData":{"isDefault":true,"type":"default","frameId":"DD04FBFA0867FF104096D3F3D3F15374"},"isLiveEdit":false,"sourceMapURL":"","hasSourceURL":false,"isModule":false,"length":19}}
[15:44:56.057 UTC] → To target: "{\"id\":14,\"method\":\"Debugger.getPossibleBreakpoints\",\"params\":{\"start\":{\"scriptId\":\"13\",\"lineNumber\":0,\"columnNumber\":0},\"end\":{\"scriptId\":\"13\",\"lineNumber\":1,\"columnNumber\":0},\"restrictToFunction\":false}}"
[15:44:56.060 UTC] ← From target: {"id":12,"result":{"result":{"type":"string","value":"Mozilla/5.0 (Macintosh; Intel Mac OS X 10_15_4) AppleWebKit/537.36 (KHTML, like Gecko) Chrome/78.0.3882.0 Safari/537.36"}}}
[15:44:56.060 UTC] Target userAgent: Mozilla/5.0 (Macintosh; Intel Mac OS X 10_15_4) AppleWebKit/537.36 (KHTML, like Gecko) Chrome/78.0.3882.0 Safari/537.36
[15:44:56.060 UTC] → To target: "{\"id\":15,\"method\":\"Network.setCacheDisabled\",\"params\":{\"cacheDisabled\":true}}"
[15:44:56.062 UTC] ← From target: {"id":14,"result":{"locations":[{"scriptId":"13","lineNumber":0,"columnNumber":0}]}}
[15:44:56.062 UTC] To client: {"seq":0,"type":"event","event":"initialized"}
[15:44:56.063 UTC] To client: {"seq":0,"type":"event","event":"loadedSource","body":{"reason":"new","source":{"name":"VM13","path":"<eval>/VM13","sourceReference":1000}}}
[15:44:56.063 UTC] From client: configurationDone(undefined)
[15:44:56.064 UTC] → To target: "{\"id\":16,\"method\":\"Page.navigate\",\"params\":{\"url\":\"http://localhost:7890\"}}"
[15:44:56.064 UTC] To client: {"seq":0,"type":"response","request_seq":3,"command":"configurationDone","success":true}
[15:44:56.065 UTC] To client: {"seq":0,"type":"event","event":"output","body":{"category":"telemetry","output":"ClientRequest/configurationDone","data":{"Versions.DebugAdapterCore":"6.8.9","Versions.DebugAdapter":"4.12.8","Versions.Target.CRDPVersion":"1.3","Versions.Target.Revision":"@19d4547535ab5aba70b4730443f84e8153052174","Versions.Target.UserAgent":"Mozilla/5.0 (Macintosh; Intel Mac OS X 10_15_4) AppleWebKit/537.36 (KHTML, like Gecko) Chrome/78.0.3882.0 Safari/537.36","Versions.Target.V8":"7.8.89","Versions.Target.Project":"Chrome","Versions.Target.Version":"78.0.3882.0","successful":"true","timeTakenInMilliseconds":"0.490822","requestType":"request"}}}
[15:44:56.065 UTC] ← From target: {"id":15,"result":{}}
[15:44:56.065 UTC] From client: evaluate({"context":"repl","expression":"window.location.href"})
[15:44:56.066 UTC] → To target: "{\"id\":17,\"method\":\"Runtime.evaluate\",\"params\":{\"expression\":\"window.location.href\",\"silent\":true,\"includeCommandLineAPI\":true,\"objectGroup\":\"console\",\"userGesture\":true,\"generatePreview\":true}}"
[15:44:56.073 UTC] ← From target: {"id":16,"result":{"frameId":"DD04FBFA0867FF104096D3F3D3F15374","loaderId":"36943D93831BC710C85988183E2E2F18"}}
[15:44:56.089 UTC] ← From target: {"method":"Page.frameStartedLoading","params":{"frameId":"DD04FBFA0867FF104096D3F3D3F15374"}}
[15:44:56.090 UTC] ← From target: {"method":"Runtime.executionContextDestroyed","params":{"executionContextId":1}}
[15:44:56.090 UTC] ← From target: {"method":"Runtime.executionContextsCleared","params":{}}
[15:44:56.091 UTC] To client: {"seq":0,"type":"event","event":"loadedSource","body":{"reason":"removed","source":{"name":"VM13","path":"<eval>/VM13","sourceReference":1000}}}
[15:44:56.091 UTC] ← From target: {"method":"Page.frameNavigated","params":{"frame":{"id":"DD04FBFA0867FF104096D3F3D3F15374","loaderId":"36943D93831BC710C85988183E2E2F18","url":"http://localhost:7890/","securityOrigin":"http://localhost:7890","mimeType":"text/html"}}}
[15:44:56.091 UTC] ← From target: {"method":"Runtime.executionContextCreated","params":{"context":{"id":2,"origin":"http://localhost:7890","name":"","auxData":{"isDefault":true,"type":"default","frameId":"DD04FBFA0867FF104096D3F3D3F15374"}}}}
[15:44:56.092 UTC] ← From target: {"method":"Debugger.scriptParsed","params":{"scriptId":"14","url":"","startLine":0,"startColumn":0,"endLine":0,"endColumn":41,"executionContextId":2,"hash":"12d0c06911f98aa723b5ea2b0bab5ec95ac09838","executionContextAuxData":{"isDefault":true,"type":"default","frameId":"DD04FBFA0867FF104096D3F3D3F15374"},"isLiveEdit":false,"sourceMapURL":"","hasSourceURL":false,"isModule":false,"length":41}}
[15:44:56.093 UTC] To client: {"seq":0,"type":"event","event":"loadedSource","body":{"reason":"new","source":{"name":"VM14","path":"<eval>/VM14","sourceReference":1001}}}
[15:44:56.093 UTC] ← From target: {"method":"Debugger.scriptParsed","params":{"scriptId":"15","url":"","startLine":0,"startColumn":0,"endLine":0,"endColumn":20,"executionContextId":2,"hash":"3be2413a0896b9b96e88e8bd255e5112184617d8","executionContextAuxData":{"isDefault":true,"type":"default","frameId":"DD04FBFA0867FF104096D3F3D3F15374"},"isLiveEdit":false,"sourceMapURL":"","hasSourceURL":false,"isModule":false,"length":20}}
[15:44:56.094 UTC] To client: {"seq":0,"type":"event","event":"loadedSource","body":{"reason":"new","source":{"name":"VM15","path":"<eval>/VM15","sourceReference":1002}}}
[15:44:56.094 UTC] ← From target: {"id":17,"result":{"result":{"type":"string","value":"http://localhost:7890/"}}}
[15:44:56.094 UTC] To client: {"seq":0,"type":"response","request_seq":4,"command":"evaluate","success":true,"body":{"result":"\"http://localhost:7890/\"","variablesReference":0,"type":"string"}}
[15:44:56.094 UTC] To client: {"seq":0,"type":"event","event":"output","body":{"category":"telemetry","output":"ClientRequest/evaluate","data":{"Versions.DebugAdapterCore":"6.8.9","Versions.DebugAdapter":"4.12.8","Versions.Target.CRDPVersion":"1.3","Versions.Target.Revision":"@19d4547535ab5aba70b4730443f84e8153052174","Versions.Target.UserAgent":"Mozilla/5.0 (Macintosh; Intel Mac OS X 10_15_4) AppleWebKit/537.36 (KHTML, like Gecko) Chrome/78.0.3882.0 Safari/537.36","Versions.Target.V8":"7.8.89","Versions.Target.Project":"Chrome","Versions.Target.Version":"78.0.3882.0","successful":"true","timeTakenInMilliseconds":"28.978395","requestType":"request"}}}
[15:44:56.096 UTC] From client: disconnect(undefined)
[15:44:56.097 UTC] To client: {"seq":0,"type":"event","event":"output","body":{"category":"telemetry","output":"FullSessionStatistics/SourceMaps/Overrides","data":{"Versions.DebugAdapterCore":"6.8.9","Versions.DebugAdapter":"4.12.8","Versions.Target.CRDPVersion":"1.3","Versions.Target.Revision":"@19d4547535ab5aba70b4730443f84e8153052174","Versions.Target.UserAgent":"Mozilla/5.0 (Macintosh; Intel Mac OS X 10_15_4) AppleWebKit/537.36 (KHTML, like Gecko) Chrome/78.0.3882.0 Safari/537.36","Versions.Target.V8":"7.8.89","Versions.Target.Project":"Chrome","Versions.Target.Version":"78.0.3882.0","aspNetClientAppFallbackCount":0}}}
[15:44:56.097 UTC] To client: {"seq":0,"type":"event","event":"output","body":{"category":"telemetry","output":"target/notification/onScriptParsed","data":{"Versions.DebugAdapterCore":"6.8.9","Versions.DebugAdapter":"4.12.8","Versions.Target.CRDPVersion":"1.3","Versions.Target.Revision":"@19d4547535ab5aba70b4730443f84e8153052174","Versions.Target.UserAgent":"Mozilla/5.0 (Macintosh; Intel Mac OS X 10_15_4) AppleWebKit/537.36 (KHTML, like Gecko) Chrome/78.0.3882.0 Safari/537.36","Versions.Target.V8":"7.8.89","Versions.Target.Project":"Chrome","Versions.Target.Version":"78.0.3882.0","aggregated.startTime":"[\"1590075896055\",\"1590075896092\",\"1590075896093\"]","aggregated.successful":"[\"true\",\"true\",\"true\"]","aggregated.timeTakenInMilliseconds":"[\"3.434389\",\"0.378083\",\"0.377381\"]"}}}
[15:44:56.098 UTC] To client: {"seq":0,"type":"event","event":"output","body":{"category":"telemetry","output":"report-start-up-timings","data":{"Versions.DebugAdapterCore":"6.8.9","Versions.DebugAdapter":"4.12.8","Versions.Target.CRDPVersion":"1.3","Versions.Target.Revision":"@19d4547535ab5aba70b4730443f84e8153052174","Versions.Target.UserAgent":"Mozilla/5.0 (Macintosh; Intel Mac OS X 10_15_4) AppleWebKit/537.36 (KHTML, like Gecko) Chrome/78.0.3882.0 Safari/537.36","Versions.Target.V8":"7.8.89","Versions.Target.Project":"Chrome","Versions.Target.Version":"78.0.3882.0","RequestedContentWasDetected":"false","Steps":"[\"BeforeFirstStep\",\"ClientRequest/initialize\",\"ClientRequest/launch\",\"LaunchTarget.LaunchExe\",\"Attach\",\"Attach.RequestDebuggerTargetsInformation\",\"Attach.ProcessDebuggerTargetsInformation\",\"Attach.AttachToTargetDebuggerWebsocket\",\"Attach.ConfigureDebuggingSession.Internal\",\"Attach.ConfigureDebuggingSession.Target\",\"Attach.ConfigureDebuggingSession.End\"]","All":"5650.97165","Request.ClientRequest/configurationDone.startTime":"[1590075896063]","Request.ClientRequest/configurationDone.timeTakenInMilliseconds":"[0.490822]","Request.ClientRequest/evaluate.startTime":"[1590075896065]","Request.ClientRequest/evaluate.timeTakenInMilliseconds":"[28.978395]","BeforeFirstStep":"[10.108449]","WaitingAfter.ClientRequest/initialize":"[11.755739]","ClientRequest/initialize":"[2.10923]","ClientRequest/launch":"[2.513651]","LaunchTarget.LaunchExe":"[9.326218]","Attach":"[424.58524]","Attach.RequestDebuggerTargetsInformation":"[5100.466017]","Attach.ProcessDebuggerTargetsInformation":"[1.077741]","Attach.AttachToTargetDebuggerWebsocket":"[2.410935]","Attach.ConfigureDebuggingSession.Internal":"[0.445956]","Attach.ConfigureDebuggingSession.Target":"[52.57358]","WaitingAfter.ClientRequest/launch":"[5606.462698]","WaitingAfter.NotifyInitialized":"[5615.731631]","RequestedNavigateToUserPage":"[5626.331104]","Attach.ConfigureDebuggingSession.End":"[45.069032]","RequestedContentWasNotDetectedReason":"shutdown"}}}
[15:44:56.098 UTC] Terminated: Got disconnect request
[15:44:56.098 UTC] Waiting for any pending steps or log messages.
[15:44:56.098 UTC] Killing Chrome process
[15:44:56.098 UTC] To client: {"seq":0,"type":"response","request_seq":5,"command":"disconnect","success":true}
[15:44:56.099 UTC] To client: {"seq":0,"type":"event","event":"output","body":{"category":"telemetry","output":"ClientRequest/disconnect","data":{"Versions.DebugAdapterCore":"6.8.9","Versions.DebugAdapter":"4.12.8","Versions.Target.CRDPVersion":"1.3","Versions.Target.Revision":"@19d4547535ab5aba70b4730443f84e8153052174","Versions.Target.UserAgent":"Mozilla/5.0 (Macintosh; Intel Mac OS X 10_15_4) AppleWebKit/537.36 (KHTML, like Gecko) Chrome/78.0.3882.0 Safari/537.36","Versions.Target.V8":"7.8.89","Versions.Target.Project":"Chrome","Versions.Target.Version":"78.0.3882.0","successful":"true","timeTakenInMilliseconds":"2.125691","requestType":"request"}}}
[15:44:56.099 UTC] Current step and log messages complete
[15:44:56.099 UTC] To client: {"seq":0,"type":"event","event":"output","body":{"category":"telemetry","output":"debugStopped","data":{"Versions.DebugAdapterCore":"6.8.9","Versions.DebugAdapter":"4.12.8","Versions.Target.CRDPVersion":"1.3","Versions.Target.Revision":"@19d4547535ab5aba70b4730443f84e8153052174","Versions.Target.UserAgent":"Mozilla/5.0 (Macintosh; Intel Mac OS X 10_15_4) AppleWebKit/537.36 (KHTML, like Gecko) Chrome/78.0.3882.0 Safari/537.36","Versions.Target.V8":"7.8.89","Versions.Target.Project":"Chrome","Versions.Target.Version":"78.0.3882.0","reason":"Got disconnect request"}}}
[15:44:56.099 UTC] To client: {"seq":0,"type":"event","event":"terminated"}
